Midterm 2 W26
…
(3 points) As explained above, the ratio of
urea_nitrogen to creatinine is used as an
index of fasting. To calculate the ratio, we need to multiply
urea_nitrogen by 0.466, then divide by
creatinine. Create a new variable called
un_creat_ratio that contains this calculation.

polar_bears <- polar_bears %>% 
  mutate(un_creat_ratio=urea_nitrogen*0.466/creatinine)
polar_bears %>% 
  select(bear_id,urea_nitrogen,creatinine,un_creat_ratio)

## # A tibble: 519 × 4
##    bear_id urea_nitrogen creatinine un_creat_ratio
##      <dbl>         <dbl>      <dbl>          <dbl>
##  1    6398          12.3       0.57         10.1  
##  2    6384           3         1.45          0.964
##  3    6520          30         0.85         16.4  
##  4    6559          18         1.1           7.63 
##  5   20629          10         1             4.66 
##  6   20876           5         1.3           1.79 
##  7   20354          29.5       0.65         21.1  
##  8   21024          29         0.7          19.3  
##  9   20764          19.5       1.2           7.57 
## 10   21045          29         0.5          27.0  
## # ℹ 509 more rows

(4 points) The authors of the study categorized bears as fasting if
their un_creat_ratio was less than or equal to 10. Use
case_when() to create a new variable called
fasting that categorizes bears as fasting or not.

polar_bears <- polar_bears %>% 
  mutate(fasting=case_when(
    un_creat_ratio <= 10 ~ "fasting",
    un_creat_ratio > 10 ~ "not fasting"
  ))
polar_bears %>% 
  select(bear_id,un_creat_ratio,fasting)

## # A tibble: 519 × 3
##    bear_id un_creat_ratio fasting    
##      <dbl>          <dbl> <chr>      
##  1    6398         10.1   not fasting
##  2    6384          0.964 fasting    
##  3    6520         16.4   not fasting
##  4    6559          7.63  fasting    
##  5   20629          4.66  fasting    
##  6   20876          1.79  fasting    
##  7   20354         21.1   not fasting
##  8   21024         19.3   not fasting
##  9   20764          7.57  fasting    
## 10   21045         27.0   not fasting
## # ℹ 509 more rows
…
